KGP_RISC/kgp_risc/isim.log
ISim log file
Running: /home/ise/shared_xlnx/CS39001-Computer-Architecture-And-Organization-Lab/KGP_RISC/kgp_risc/TB_Master_isim_beh.exe -intstyle ise -gui -tclbatch isim.cmd -wdb /home/ise/shared_xlnx/CS39001-Computer-Architecture-And-Organization-Lab/KGP_RISC/kgp_risc/TB_Master_isim_beh.wdb 
ISim P.20131013 (signature 0xfbc00daa)
----------------------------------------------------------------------
WARNING:Security:42 - Your software subscription period has lapsed. Your current version of Xilinx tools will continue to function, but you no longer qualify for Xilinx software updates or new releases.


----------------------------------------------------------------------
This is a Full version of ISim.
WARNING:  For instance dpath/regToWrite/, width 32 of formal port A is not equal to width 5 of actual constant.
WARNING: File "/home/ise/shared_xlnx/CS39001-Computer-Architecture-And-Organization-Lab/KGP_RISC/kgp_risc/datapath.v" Line 48.  For instance dpath/regToWrite/, width 32 of formal port B is not equal to width 5 of actual signal RS.
WARNING: File "/home/ise/shared_xlnx/CS39001-Computer-Architecture-And-Organization-Lab/KGP_RISC/kgp_risc/datapath.v" Line 43.  For instance dpath/regToWrite/, width 32 of formal port out is not equal to width 5 of actual signal writeReg.
WARNING: File "/home/ise/shared_xlnx/CS39001-Computer-Architecture-And-Organization-Lab/KGP_RISC/kgp_risc/datapath.v" Line 49.  For instance dpath/immSelect/, width 32 of formal port A is not equal to width 16 of actual signal IMM_LS.
WARNING: File "/home/ise/shared_xlnx/CS39001-Computer-Architecture-And-Organization-Lab/KGP_RISC/kgp_risc/datapath.v" Line 49.  For instance dpath/immSelect/, width 32 of formal port B is not equal to width 16 of actual signal IMM_I.
WARNING: File "/home/ise/shared_xlnx/CS39001-Computer-Architecture-And-Organization-Lab/KGP_RISC/kgp_risc/datapath.v" Line 63.  For instance dpath/immSelect/, width 32 of formal port out is not equal to width 16 of actual signal imm.
WARNING: File "/home/ise/shared_xlnx/CS39001-Computer-Architecture-And-Organization-Lab/KGP_RISC/kgp_risc/datapath.v" Line 84.  For instance dpath/dmem/, width 32 of formal port dina is not equal to width 1 of actual signal readRegData1.
WARNING: File "/home/ise/shared_xlnx/CS39001-Computer-Architecture-And-Organization-Lab/KGP_RISC/kgp_risc/datapath.v" Line 48.  For instance dpath/nextinstr/, width 32 of formal port regData is not equal to width 5 of actual signal RS.
Time resolution is 1 ps
# onerror resume
# wave add /
# run 1000 ns
Simulator is doing circuit initialization process.
 Block Memory Generator CORE Generator module loading initial data...
 Block Memory Generator data initialization complete.
Block Memory Generator CORE Generator module TB_Master.uut.dpath.imem.inst.\native_mem_module.blk_mem_gen_v7_3_inst  is using a behavioral model for simulation which will not precisely model memory collision behavior.
 Block Memory Generator CORE Generator module loading initial data...
 Block Memory Generator data initialization complete.
Block Memory Generator CORE Generator module TB_Master.uut.dpath.dmem.inst.\native_mem_module.blk_mem_gen_v7_3_inst  is using a behavioral model for simulation which will not precisely model memory collision behavior.
ALURES=xxxxxxxxxxxxxxxxxxxxxxxxxxxxxxxx, DATAREAD=xxxxxxxxxxxxxxxxxxxxxxxxxxxxxxxx, resOut=xxxxxxxxxxxxxxxxxxxxxxxxxxxxxxxx
Finished circuit initialization process.
ALURES=00000000000000000000000000000000, DATAREAD=xxxxxxxxxxxxxxxxxxxxxxxxxxxxxxxx, resOut=00000000000000000000000000000000
ALURES=00000000000000000000000000000011, DATAREAD=xxxxxxxxxxxxxxxxxxxxxxxxxxxxxxxx, resOut=00000000000000000000000000000000
ALURES=00000000000000000000000000000011, DATAREAD=00000000000000000000000000000000, resOut=00000000000000000000000000000000
ALURES=00000000000000000000000000000011, DATAREAD=00000000000000000000000000000000, resOut=00000000000000000000000000000000
ALURES=00000000000000000000000000000011, DATAREAD=00000000000000000000000000000000, resOut=00000000000000000000000000000000
ALURES=00000000000000000000000000000011, DATAREAD=00000000000000000000000000000000, resOut=00000000000000000000000000000000
ALURES=00000000000000000000000000000011, DATAREAD=00000000000000000000000000000000, resOut=00000000000000000000000000000000
ALURES=00000000000000000000000000000011, DATAREAD=00000000000000000000000000000000, resOut=00000000000000000000000000000000
ALURES=00000000000000000000000000000011, DATAREAD=00000000000000000000000000000000, resOut=00000000000000000000000000000000
ALURES=00000000000000000000000000000011, DATAREAD=00000000000000000000000000000000, resOut=00000000000000000000000000000000
ALURES=00000000000000000000000000000011, DATAREAD=00000000000000000000000000000000, resOut=00000000000000000000000000000000
ALURES=00000000000000000000000000000011, DATAREAD=00000000000000000000000000000000, resOut=00000000000000000000000000000000
ALURES=00000000000000000000000000000011, DATAREAD=00000000000000000000000000001000, resOut=00000000000000000000000000000000
ALURES=00000000000000000000000000001100, DATAREAD=00000000000000000000000000001000, resOut=00000000000000000000000000001000
ALURES=00000000000000000000000000001100, DATAREAD=00000000000000000000000000000001, resOut=00000000000000000000000000001000
ALURES=00000000000000000000000000000110, DATAREAD=00000000000000000000000000000001, resOut=00000000000000000000000000001100
ALURES=00000000000000000000000000000110, DATAREAD=00000000000000000000000000000011, resOut=00000000000000000000000000001100
ALURES=00000000000000000000000000001111, DATAREAD=00000000000000000000000000000011, resOut=00000000000000000000000000001100
ALURES=00000000000000000000000000001111, DATAREAD=00000000000000000000000000000001, resOut=00000000000000000000000000001100
ALURES=00000000000000000000000001111000, DATAREAD=00000000000000000000000000000001, resOut=00000000000000000000000000001111
ALURES=00000000000000000000000001111000, DATAREAD=00000000000000000000000000000001, resOut=00000000000000000000000000001111
ALURES=00000000000000000000001111000000, DATAREAD=00000000000000000000000000000001, resOut=00000000000000000000000001111000
ALURES=00000000000000000000001111000000, DATAREAD=00000000000000000000000000000001, resOut=00000000000000000000000001111000
ALURES=00000000000000000001111000000000, DATAREAD=00000000000000000000000000000001, resOut=00000000000000000000001111000000
ALURES=00000000000000000001111000000000, DATAREAD=00000000000000000000000000000001, resOut=00000000000000000000001111000000
ALURES=00000000000000001111000000000000, DATAREAD=00000000000000000000000000000001, resOut=00000000000000000001111000000000
ALURES=00000000000000001111000000000000, DATAREAD=00000000000000000000000000010000, resOut=00000000000000000001111000000000
ALURES=00000000000001111000000000000000, DATAREAD=00000000000000000000000000010000, resOut=00000000000000001111000000000000
ALURES=00000000000001111000000000000000, DATAREAD=00000000000000000000000000010000, resOut=00000000000000001111000000000000
ALURES=00000000001111000000000000000000, DATAREAD=00000000000000000000000000010000, resOut=00000000000001111000000000000000
ALURES=00000000001111000000000000000000, DATAREAD=00000000000000000000000000010000, resOut=00000000000001111000000000000000
ALURES=00000001111000000000000000000000, DATAREAD=00000000000000000000000000010000, resOut=00000000001111000000000000000000
ALURES=00000001111000000000000000000000, DATAREAD=00000000000000000000000000010000, resOut=00000000001111000000000000000000
ALURES=00001111000000000000000000000000, DATAREAD=00000000000000000000000000010000, resOut=00000001111000000000000000000000
ALURES=00001111000000000000000000000000, DATAREAD=00000000000000000000000000010000, resOut=00000001111000000000000000000000
ALURES=01111000000000000000000000000000, DATAREAD=00000000000000000000000000010000, resOut=00001111000000000000000000000000
ALURES=01111000000000000000000000000000, DATAREAD=00000000000000000000000000010000, resOut=00001111000000000000000000000000
ALURES=11000000000000000000000000000000, DATAREAD=00000000000000000000000000010000, resOut=01111000000000000000000000000000
ALURES=11000000000000000000000000000000, DATAREAD=00000000000000000000000000010000, resOut=01111000000000000000000000000000
ALURES=00000000000000000000000000000000, DATAREAD=00000000000000000000000000010000, resOut=11000000000000000000000000000000
ALURES=00000000000000000000000000000000, DATAREAD=00000000000000000000000000010000, resOut=11000000000000000000000000000000
ALURES=00000000000000000000000000000000, DATAREAD=00000000000000000000000000010000, resOut=00000000000000000000000000000000
ALURES=00000000000000000000000000000000, DATAREAD=00000000000000000000000000010000, resOut=00000000000000000000000000000000
ALURES=00000000000000000000000000000000, DATAREAD=00000000000000000000000000010000, resOut=00000000000000000000000000000000
ALURES=00000000000000000000000000000000, DATAREAD=00000000000000000000000000010000, resOut=00000000000000000000000000000000
ALURES=00000000000000000000000000000000, DATAREAD=00000000000000000000000000010000, resOut=00000000000000000000000000000000
ALURES=00000000000000000000000000000000, DATAREAD=00000000000000000000000000010000, resOut=00000000000000000000000000000000
ALURES=00000000000000000000000000000000, DATAREAD=00000000000000000000000000010000, resOut=00000000000000000000000000000000
ALURES=00000000000000000000000000000000, DATAREAD=00000000000000000000000000010000, resOut=00000000000000000000000000000000
ALURES=00000000000000000000000000000000, DATAREAD=00000000000000000000000000010000, resOut=00000000000000000000000000000000
ALURES=00000000000000000000000000000000, DATAREAD=00000000000000000000000000010000, resOut=00000000000000000000000000000000
ALURES=00000000000000000000000000000000, DATAREAD=00000000000000000000000000010000, resOut=00000000000000000000000000000000
ALURES=00000000000000000000000000000000, DATAREAD=00000000000000000000000000010000, resOut=00000000000000000000000000000000
ALURES=00000000000000000000000000000000, DATAREAD=00000000000000000000000000010000, resOut=00000000000000000000000000000000
ALURES=00000000000000000000000000000000, DATAREAD=00000000000000000000000000010000, resOut=00000000000000000000000000000000
ALURES=00000000000000000000000000000000, DATAREAD=00000000000000000000000000010000, resOut=00000000000000000000000000000000
ALURES=00000000000000000000000000000000, DATAREAD=00000000000000000000000000010000, resOut=00000000000000000000000000000000
ALURES=00000000000000000000000000000000, DATAREAD=00000000000000000000000000010000, resOut=00000000000000000000000000000000
ALURES=00000000000000000000000000000000, DATAREAD=00000000000000000000000000010000, resOut=00000000000000000000000000000000
ALURES=00000000000000000000000000000000, DATAREAD=00000000000000000000000000010000, resOut=00000000000000000000000000000000
ALURES=00000000000000000000000000000000, DATAREAD=00000000000000000000000000010000, resOut=00000000000000000000000000000000
ALURES=00000000000000000000000000000000, DATAREAD=00000000000000000000000000010000, resOut=00000000000000000000000000000000
ALURES=00000000000000000000000000000000, DATAREAD=00000000000000000000000000010000, resOut=00000000000000000000000000000000
ALURES=00000000000000000000000000000000, DATAREAD=00000000000000000000000000010000, resOut=00000000000000000000000000000000
ALURES=00000000000000000000000000000000, DATAREAD=00000000000000000000000000010000, resOut=00000000000000000000000000000000
ALURES=00000000000000000000000000000000, DATAREAD=00000000000000000000000000010000, resOut=00000000000000000000000000000000
ALURES=00000000000000000000000000000000, DATAREAD=00000000000000000000000000010000, resOut=00000000000000000000000000000000
ALURES=00000000000000000000000000000000, DATAREAD=00000000000000000000000000010000, resOut=00000000000000000000000000000000
ALURES=00000000000000000000000000000000, DATAREAD=00000000000000000000000000010000, resOut=00000000000000000000000000000000
ALURES=00000000000000000000000000000000, DATAREAD=00000000000000000000000000010000, resOut=00000000000000000000000000000000
ALURES=00000000000000000000000000000000, DATAREAD=00000000000000000000000000010000, resOut=00000000000000000000000000000000
ALURES=00000000000000000000000000000000, DATAREAD=00000000000000000000000000010000, resOut=00000000000000000000000000000000
ALURES=00000000000000000000000000000000, DATAREAD=00000000000000000000000000010000, resOut=00000000000000000000000000000000
ALURES=00000000000000000000000000000000, DATAREAD=00000000000000000000000000010000, resOut=00000000000000000000000000000000
ALURES=00000000000000000000000000000000, DATAREAD=00000000000000000000000000010000, resOut=00000000000000000000000000000000
ALURES=00000000000000000000000000000000, DATAREAD=00000000000000000000000000010000, resOut=00000000000000000000000000000000
ALURES=00000000000000000000000000000000, DATAREAD=00000000000000000000000000010000, resOut=00000000000000000000000000000000
ALURES=00000000000000000000000000000000, DATAREAD=00000000000000000000000000010000, resOut=00000000000000000000000000000000
ALURES=00000000000000000000000000000000, DATAREAD=00000000000000000000000000010000, resOut=00000000000000000000000000000000
ALURES=00000000000000000000000000000000, DATAREAD=00000000000000000000000000010000, resOut=00000000000000000000000000000000
ALURES=00000000000000000000000000000000, DATAREAD=00000000000000000000000000010000, resOut=00000000000000000000000000000000
ALURES=00000000000000000000000000000000, DATAREAD=00000000000000000000000000010000, resOut=00000000000000000000000000000000
ALURES=00000000000000000000000000000000, DATAREAD=00000000000000000000000000010000, resOut=00000000000000000000000000000000
ALURES=00000000000000000000000000000000, DATAREAD=00000000000000000000000000010000, resOut=00000000000000000000000000000000
ALURES=00000000000000000000000000000000, DATAREAD=00000000000000000000000000010000, resOut=00000000000000000000000000000000
ALURES=00000000000000000000000000000000, DATAREAD=00000000000000000000000000010000, resOut=00000000000000000000000000000000
ALURES=00000000000000000000000000000000, DATAREAD=00000000000000000000000000010000, resOut=00000000000000000000000000000000
ALURES=00000000000000000000000000000000, DATAREAD=00000000000000000000000000010000, resOut=00000000000000000000000000000000
ALURES=00000000000000000000000000000000, DATAREAD=00000000000000000000000000010000, resOut=00000000000000000000000000000000
ALURES=00000000000000000000000000000000, DATAREAD=00000000000000000000000000010000, resOut=00000000000000000000000000000000
ALURES=00000000000000000000000000000000, DATAREAD=00000000000000000000000000010000, resOut=00000000000000000000000000000000
ALURES=00000000000000000000000000000000, DATAREAD=00000000000000000000000000010000, resOut=00000000000000000000000000000000
ALURES=00000000000000000000000000000000, DATAREAD=00000000000000000000000000010000, resOut=00000000000000000000000000000000
ALURES=00000000000000000000000000000000, DATAREAD=00000000000000000000000000010000, resOut=00000000000000000000000000000000
ALURES=00000000000000000000000000000000, DATAREAD=00000000000000000000000000010000, resOut=00000000000000000000000000000000
ALURES=00000000000000000000000000000000, DATAREAD=00000000000000000000000000010000, resOut=00000000000000000000000000000000
ALURES=00000000000000000000000000000000, DATAREAD=00000000000000000000000000010000, resOut=00000000000000000000000000000000
ALURES=00000000000000000000000000000000, DATAREAD=00000000000000000000000000010000, resOut=00000000000000000000000000000000
ALURES=00000000000000000000000000000000, DATAREAD=00000000000000000000000000010000, resOut=00000000000000000000000000000000
ALURES=00000000000000000000000000000000, DATAREAD=00000000000000000000000000010000, resOut=00000000000000000000000000000000
# exit 0
