KGP_RISC/ass7_kgp_risc/isim.log
ISim log file
Running: /home/ise/shared_xlnx/CS39001-Computer-Architecture-And-Organization-Lab/KGP_RISC/ass7_kgp_risc/TB_risc_isim_beh.exe -intstyle ise -gui -tclbatch isim.cmd -wdb /home/ise/shared_xlnx/CS39001-Computer-Architecture-And-Organization-Lab/KGP_RISC/ass7_kgp_risc/TB_risc_isim_beh.wdb 
ISim P.20131013 (signature 0xfbc00daa)
----------------------------------------------------------------------
WARNING:Security:42 - Your software subscription period has lapsed. Your current version of Xilinx tools will continue to function, but you no longer qualify for Xilinx software updates or new releases.


----------------------------------------------------------------------
This is a Full version of ISim.
Time resolution is 1 ps
# onerror resume
# wave add /
# run 1000 ns
Simulator is doing circuit initialization process.
 Block Memory Generator CORE Generator module loading initial data...
 Block Memory Generator data initialization complete.
Block Memory Generator CORE Generator module TB_risc.uut.dpath.imem.inst.\native_mem_module.blk_mem_gen_v7_3_inst  is using a behavioral model for simulation which will not precisely model memory collision behavior.
 Block Memory Generator CORE Generator module loading initial data...
 Block Memory Generator data initialization complete.
Block Memory Generator CORE Generator module TB_risc.uut.dpath.dmem.inst.\native_mem_module.blk_mem_gen_v7_3_inst  is using a behavioral model for simulation which will not precisely model memory collision behavior.
Finished circuit initialization process.
resOut = xxxxxxxxxxxxxxxxxxxxxxxxxxxxxxxx, PC =          0, Instr = 00010011000000000000000000001010
resOut = 00000000000000000000010011010000, PC =          0, Instr = 00010011000000000000000000001010
resOut = 00000000000000000000010011010000, PC =          1, Instr = 00010000100000000000000000001000
resOut = 00000000000000000000010011010000, PC =          2, Instr = 00000000110001000000000000000001
resOut = 00000000000000000000000100110100, PC =          3, Instr = 00000011000001100000000000000000
resOut = 00000000000000000000000100110100, PC =          4, Instr = 00000001000110000000000000000001
resOut = 00000000000000000000000100110100, PC =          5, Instr = 00000001000001000000000000000000
resOut = 00000000000000000000000100110100, PC =          6, Instr = 00101001000000000000000001101000
resOut = 00000000000000000000000100110100, PC =          7, Instr = 00001001000000000000000000000001
resOut = 00000000000000000000000100110100, PC =          8, Instr = 00000001000110000000000000000000
resOut = 00000000000000000000000000000000, PC =          9, Instr = 00001011000000000000000000000001
resOut = 00000000000000000000001110011100, PC =         10, Instr = 00000011000001000000000000000000
resOut = 00000000000000000000001110011100, PC =         11, Instr = 00001000100000000000000000000001
resOut = 00000000000000000000001110011100, PC =         12, Instr = 00000000100010000000000000000000
resOut = 00000000000000000000001110011100, PC =         13, Instr = 00101000100000000000000000010010
resOut = 00000000000000000000001110011100, PC =          2, Instr = 00000000110001000000000000000001
resOut = 00000000000000000000001001101000, PC =          3, Instr = 00000011000001100000000000000000
resOut = 00000000000000000000001001101000, PC =          4, Instr = 00000001000110000000000000000001
resOut = 00000000000000000000001001101000, PC =          5, Instr = 00000001000001000000000000000000
resOut = 00000000000000000000001001101000, PC =          6, Instr = 00101001000000000000000001101000
resOut = 00000000000000000000001001101000, PC =         13, Instr = 00101000100000000000000000010010
resOut = 00000000000000000000001001101000, PC =          2, Instr = 00000000110001000000000000000001
resOut = 00000000000000000000000100110100, PC =          3, Instr = 00000011000001100000000000000000
resOut = 00000000000000000000000100110100, PC =          4, Instr = 00000001000110000000000000000001
resOut = 00000000000000000000000100110100, PC =          5, Instr = 00000001000001000000000000000000
resOut = 00000000000000000000000100110100, PC =          6, Instr = 00101001000000000000000001101000
resOut = 00000000000000000000000100110100, PC =          7, Instr = 00001001000000000000000000000001
resOut = 00000000000000000000000100110100, PC =          8, Instr = 00000001000110000000000000000000
resOut = 00000000000000000000000000000000, PC =          9, Instr = 00001011000000000000000000000001
resOut = 00000000000000000000000100110100, PC =         10, Instr = 00000011000001000000000000000000
resOut = 00000000000000000000000100110100, PC =         11, Instr = 00001000100000000000000000000001
resOut = 00000000000000000000000100110100, PC =         12, Instr = 00000000100010000000000000000000
resOut = 00000000000000000000000100110100, PC =         13, Instr = 00101000100000000000000000010010
resOut = 00000000000000000000000100110100, PC =          2, Instr = 00000000110001000000000000000001
resOut = 00000000000000000000000000000000, PC =          3, Instr = 00000011000001100000000000000000
resOut = 00000000000000000000000000000000, PC =          4, Instr = 00000001000110000000000000000001
resOut = 00000000000000000000000000000000, PC =          5, Instr = 00000001000001000000000000000000
resOut = 00000000000000000000000000000000, PC =          6, Instr = 00101001000000000000000001101000
resOut = 00000000000000000000000000000000, PC =          7, Instr = 00001001000000000000000000000001
resOut = 00000000000000000000000000000000, PC =          8, Instr = 00000001000110000000000000000000
resOut = 00000000000000000000000000000000, PC =          9, Instr = 00001011000000000000000000000001
resOut = 00000000000000000000000100110100, PC =         10, Instr = 00000011000001000000000000000000
resOut = 00000000000000000000000100110100, PC =         11, Instr = 00001000100000000000000000000001
resOut = 00000000000000000000000100110100, PC =         12, Instr = 00000000100010000000000000000000
resOut = 00000000000000000000000100110100, PC =         13, Instr = 00101000100000000000000000010010
resOut = 00000000000000000000000100110100, PC =         14, Instr = 00100000000000000000000001110000
resOut = 00000000000000000000000100110100, PC =         14, Instr = 00100000000000000000000001110000
resOut = 00000000000000000000000100110100, PC =         14, Instr = 00100000000000000000000001110000
# exit 0
